Data transformation and manipulation
…
Filtering raws with filter

Here are a few examples, using different logical operators:

Code

localities_2022 %>% 
  filter(district_eng=="Haifa")

# A tibble: 30 × 24
   name          name_eng    symbol type_eng type  population  rank distance_tlv
   <chr>         <chr>        <dbl> <chr>    <chr>      <dbl> <dbl>        <dbl>
 1 אום אל-פחם    Umm alFahm    2710 municip… עירי…      58665     2         60.6
 2 אור עקיבא     Or Aqiva      1020 municip… עירי…      20874     5         39.4
 3 באקה אל-גרביה Baqa AlGha…   6000 municip… עירי…      31397     4         40.6
 4 חדרה          Hadera        6500 municip… עירי…     103041     6         32.9
 5 חיפה          Haifa         4000 municip… עירי…     290306     7         79.6
 6 חריש          Harish        1247 municip… עירי…      33380     5         48.7
 7 טירת כרמל     Tirat Karm…   2100 municip… עירי…      28753     5         69.7
 8 נשר           Nesher        2500 municip… עירי…      23761     7         81.2
 9 קריית אתא     Qiryat Atta   6800 municip… עירי…      61142     6         86.5
10 קריית ביאליק  Qiryat Bia…   9500 municip… עירי…      44620     6         86.5
# ℹ 20 more rows
# ℹ 16 more variables: district_eng <chr>, district <chr>, class_size <dbl>,
#   bagrut <dbl>, teacher_student_ratio <dbl>, income <dbl>,
#   percent_arab <dbl>, life_expectancy <dbl>, diabetes <dbl>,
#   obesity_grade1 <dbl>, obesity_grade7 <dbl>, cancer_men <chr>,
#   cancer_women <chr>, voting_rate_knesset_2021 <dbl>,
#   voting_rate_knesset_2022 <dbl>, voting_rate_municipalities_2018 <dbl>

Code

localities_2022 %>% 
  filter(district_eng!="Haifa") 

# A tibble: 226 × 24
   name      name_eng    symbol type_eng     type  population  rank distance_tlv
   <chr>     <chr>        <dbl> <chr>        <chr>      <dbl> <dbl>        <dbl>
 1 אופקים    Ofaqim          31 municipality עירי…      35506     3         87.1
 2 אור יהודה Or Yehuda     2400 municipality עירי…      38854     5          0  
 3 אילת      Elat          2600 municipality עירי…      53151     6        323  
 4 אלעד      El'ad         1309 municipality עירי…      49487     2         11.6
 5 אריאל     Ari'el        3570 municipality עירי…      20520     6         33.3
 6 אשדוד     Ashdod          70 municipality עירי…     226827     5         28.5
 7 אשקלון    Ashqelon      7100 municipality עירי…     153138     5         43.7
 8 באר יעקב  Beer Yaakov   2530 municipality עירי…      31325     7          9.7
 9 באר שבע   Be'er Sheva   9000 municipality עירי…     214162     5         91.5
10 בית שאן   Bet She'an    9200 municipality עירי…      19073     5         99.5
# ℹ 216 more rows
# ℹ 16 more variables: district_eng <chr>, district <chr>, class_size <dbl>,
#   bagrut <dbl>, teacher_student_ratio <dbl>, income <dbl>,
#   percent_arab <dbl>, life_expectancy <dbl>, diabetes <dbl>,
#   obesity_grade1 <dbl>, obesity_grade7 <dbl>, cancer_men <chr>,
#   cancer_women <chr>, voting_rate_knesset_2021 <dbl>,
#   voting_rate_knesset_2022 <dbl>, voting_rate_municipalities_2018 <dbl>

Code

localities_2022 %>% 
  filter(distance_tlv>50)

# A tibble: 122 × 24
   name       name_eng     symbol type_eng   type  population  rank distance_tlv
   <chr>      <chr>         <dbl> <chr>      <chr>      <dbl> <dbl>        <dbl>
 1 אום אל-פחם Umm alFahm     2710 municipal… עירי…      58665     2         60.6
 2 אופקים     Ofaqim           31 municipal… עירי…      35506     3         87.1
 3 אילת       Elat           2600 municipal… עירי…      53151     6        323  
 4 באר שבע    Be'er Sheva    9000 municipal… עירי…     214162     5         91.5
 5 בית שאן    Bet She'an     9200 municipal… עירי…      19073     5         99.5
 6 ביתר עילית Betar Illit    3780 municipal… עירי…      64016     1         59.1
 7 דימונה     Dimona         2200 municipal… עירי…      36776     5        129. 
 8 חיפה       Haifa          4000 municipal… עירי…     290306     7         79.6
 9 טבריה      Tiberias       6700 municipal… עירי…      48472     4        114. 
10 טירת כרמל  Tirat Karmel   2100 municipal… עירי…      28753     5         69.7
# ℹ 112 more rows
# ℹ 16 more variables: district_eng <chr>, district <chr>, class_size <dbl>,
#   bagrut <dbl>, teacher_student_ratio <dbl>, income <dbl>,
#   percent_arab <dbl>, life_expectancy <dbl>, diabetes <dbl>,
#   obesity_grade1 <dbl>, obesity_grade7 <dbl>, cancer_men <chr>,
#   cancer_women <chr>, voting_rate_knesset_2021 <dbl>,
#   voting_rate_knesset_2022 <dbl>, voting_rate_municipalities_2018 <dbl>

Code

localities_2022 %>% 
  filter(distance_tlv<50)

# A tibble: 79 × 24
   name          name_eng    symbol type_eng type  population  rank distance_tlv
   <chr>         <chr>        <dbl> <chr>    <chr>      <dbl> <dbl>        <dbl>
 1 אור יהודה     Or Yehuda     2400 municip… עירי…      38854     5          0  
 2 אור עקיבא     Or Aqiva      1020 municip… עירי…      20874     5         39.4
 3 אלעד          El'ad         1309 municip… עירי…      49487     2         11.6
 4 אריאל         Ari'el        3570 municip… עירי…      20520     6         33.3
 5 אשדוד         Ashdod          70 municip… עירי…     226827     5         28.5
 6 אשקלון        Ashqelon      7100 municip… עירי…     153138     5         43.7
 7 באקה אל-גרביה Baqa AlGha…   6000 municip… עירי…      31397     4         40.6
 8 באר יעקב      Beer Yaakov   2530 municip… עירי…      31325     7          9.7
 9 בית שמש       Bet Shemesh   2610 municip… עירי…     154694     2         43.2
10 בני ברק       Bene Beraq    6100 municip… עירי…     218357     2          0  
# ℹ 69 more rows
# ℹ 16 more variables: district_eng <chr>, district <chr>, class_size <dbl>,
#   bagrut <dbl>, teacher_student_ratio <dbl>, income <dbl>,
#   percent_arab <dbl>, life_expectancy <dbl>, diabetes <dbl>,
#   obesity_grade1 <dbl>, obesity_grade7 <dbl>, cancer_men <chr>,
#   cancer_women <chr>, voting_rate_knesset_2021 <dbl>,
#   voting_rate_knesset_2022 <dbl>, voting_rate_municipalities_2018 <dbl>
…
Code

localities_2022 %>% 
  filter(district_eng=="Haifa" | distance_tlv<50) # `|`= or

# A tibble: 100 × 24
   name          name_eng    symbol type_eng type  population  rank distance_tlv
   <chr>         <chr>        <dbl> <chr>    <chr>      <dbl> <dbl>        <dbl>
 1 אום אל-פחם    Umm alFahm    2710 municip… עירי…      58665     2         60.6
 2 אור יהודה     Or Yehuda     2400 municip… עירי…      38854     5          0  
 3 אור עקיבא     Or Aqiva      1020 municip… עירי…      20874     5         39.4
 4 אלעד          El'ad         1309 municip… עירי…      49487     2         11.6
 5 אריאל         Ari'el        3570 municip… עירי…      20520     6         33.3
 6 אשדוד         Ashdod          70 municip… עירי…     226827     5         28.5
 7 אשקלון        Ashqelon      7100 municip… עירי…     153138     5         43.7
 8 באקה אל-גרביה Baqa AlGha…   6000 municip… עירי…      31397     4         40.6
 9 באר יעקב      Beer Yaakov   2530 municip… עירי…      31325     7          9.7
10 בית שמש       Bet Shemesh   2610 municip… עירי…     154694     2         43.2
# ℹ 90 more rows
# ℹ 16 more variables: district_eng <chr>, district <chr>, class_size <dbl>,
#   bagrut <dbl>, teacher_student_ratio <dbl>, income <dbl>,
#   percent_arab <dbl>, life_expectancy <dbl>, diabetes <dbl>,
#   obesity_grade1 <dbl>, obesity_grade7 <dbl>, cancer_men <chr>,
#   cancer_women <chr>, voting_rate_knesset_2021 <dbl>,
#   voting_rate_knesset_2022 <dbl>, voting_rate_municipalities_2018 <dbl>

Arranging raws with arrange

Code

localities_2022 %>% 
  arrange(distance_tlv)

# A tibble: 256 × 24
   name         name_eng     symbol type_eng type  population  rank distance_tlv
   <chr>        <chr>         <dbl> <chr>    <chr>      <dbl> <dbl>        <dbl>
 1 אור יהודה    Or Yehuda      2400 municip… עירי…      38854     5            0
 2 בני ברק      Bene Beraq     6100 municip… עירי…     218357     2            0
 3 בת ים        Bat Yam        6200 municip… עירי…     128465     5            0
 4 גבעתיים      Giv'atayim     6300 municip… עירי…      61924     9            0
 5 הרצלייה      Herzliyya      6400 municip… עירי…     106741     8            0
 6 חולון        Holon          6600 municip… עירי…     197957     7            0
 7 קריית אונו   Qiryat Ono     2620 municip… עירי…      43241     9            0
 8 רמת גן       Ramat Gan      8600 municip… עירי…     172486     8            0
 9 רמת השרון    Ramat HaSha…   2650 municip… עירי…      48181     9            0
10 תל אביב -יפו Tel Aviv  Y…   5000 municip… עירי…     474530     8            0
# ℹ 246 more rows
# ℹ 16 more variables: district_eng <chr>, district <chr>, class_size <dbl>,
#   bagrut <dbl>, teacher_student_ratio <dbl>, income <dbl>,
#   percent_arab <dbl>, life_expectancy <dbl>, diabetes <dbl>,
#   obesity_grade1 <dbl>, obesity_grade7 <dbl>, cancer_men <chr>,
#   cancer_women <chr>, voting_rate_knesset_2021 <dbl>,
#   voting_rate_knesset_2022 <dbl>, voting_rate_municipalities_2018 <dbl>

Code

localities_2022 %>% 
  arrange(distance_tlv %>% desc())

# A tibble: 256 × 24
   name        name_eng      symbol type_eng type  population  rank distance_tlv
   <chr>       <chr>          <dbl> <chr>    <chr>      <dbl> <dbl>        <dbl>
 1 אילת        Elat            2600 municip… עירי…      53151     6         323 
 2 מג'דל שמס   Majdal Shams    4201 local m… מועצ…      11458     3         185 
 3 עין קנייא   Ein Qiniyye     4502 local m… מועצ…       2190     3         184.
 4 מסעדה       Mas'ade         4203 local m… מועצ…       3869     2         181.
 5 בוקעאתא     Buq'ata         4001 local m… מועצ…       6805     3         180.
 6 ע'ג'ר       Ghajar          4501 local m… מועצ…       2806     3         179.
 7 מצפה רמון   Mizpe Ramon       99 local m… מועצ…       5263     3         172 
 8 מטולה       Metula            43 local m… מועצ…       1740     7         172.
 9 קריית שמונה Qiryat Shemo…   2800 municip… עירי…      22492     5         163.
10 קצרין       Qazrin          4100 local m… מועצ…       7876     5         156.
# ℹ 246 more rows
# ℹ 16 more variables: district_eng <chr>, district <chr>, class_size <dbl>,
#   bagrut <dbl>, teacher_student_ratio <dbl>, income <dbl>,
#   percent_arab <dbl>, life_expectancy <dbl>, diabetes <dbl>,
#   obesity_grade1 <dbl>, obesity_grade7 <dbl>, cancer_men <chr>,
#   cancer_women <chr>, voting_rate_knesset_2021 <dbl>,
#   voting_rate_knesset_2022 <dbl>, voting_rate_municipalities_2018 <dbl>

Code

localities_2022 %>% 
  arrange(rank)

# A tibble: 256 × 24
   name          name_eng    symbol type_eng type  population  rank distance_tlv
   <chr>         <chr>        <dbl> <chr>    <chr>      <dbl> <dbl>        <dbl>
 1 ביתר עילית    Betar Illit   3780 municip… עירי…      64016     1         59.1
 2 מודיעין עילית Modi'inMak…   3797 municip… עירי…      83356     1         27.5
 3 רהט           Rahat         1161 municip… עירי…      79064     1         76.7
 4 חורה          Hura          1303 local m… מועצ…      24822     1         93.9
 5 כסיפה         Kuseife       1059 local m… מועצ…      23990     1        110. 
 6 לקיה          Laqye         1060 local m… מועצ…      16011     1         87.5
 7 ערערה-בנגב    Ar'araBaNe…   1192 local m… מועצ…      20381     1        119. 
 8 שגב-שלום      SegevShalom   1286 local m… מועצ…      12540     1        100. 
 9 תל שבע        Tel Sheva     1054 local m… מועצ…      22849     1         95.6
10 אל קסום       <NA>            69 regiona… מועצ…      18101     1         NA  
# ℹ 246 more rows
# ℹ 16 more variables: district_eng <chr>, district <chr>, class_size <dbl>,
#   bagrut <dbl>, teacher_student_ratio <dbl>, income <dbl>,
#   percent_arab <dbl>, life_expectancy <dbl>, diabetes <dbl>,
#   obesity_grade1 <dbl>, obesity_grade7 <dbl>, cancer_men <chr>,
#   cancer_women <chr>, voting_rate_knesset_2021 <dbl>,
#   voting_rate_knesset_2022 <dbl>, voting_rate_municipalities_2018 <dbl>

Code

localities_2022 %>% 
  arrange(rank,
          distance_tlv)

# A tibble: 256 × 24
   name          name_eng    symbol type_eng type  population  rank distance_tlv
   <chr>         <chr>        <dbl> <chr>    <chr>      <dbl> <dbl>        <dbl>
 1 מודיעין עילית Modi'inMak…   3797 municip… עירי…      83356     1         27.5
 2 ביתר עילית    Betar Illit   3780 municip… עירי…      64016     1         59.1
 3 רהט           Rahat         1161 municip… עירי…      79064     1         76.7
 4 לקיה          Laqye         1060 local m… מועצ…      16011     1         87.5
 5 חורה          Hura          1303 local m… מועצ…      24822     1         93.9
 6 תל שבע        Tel Sheva     1054 local m… מועצ…      22849     1         95.6
 7 שגב-שלום      SegevShalom   1286 local m… מועצ…      12540     1        100. 
 8 כסיפה         Kuseife       1059 local m… מועצ…      23990     1        110. 
 9 ערערה-בנגב    Ar'araBaNe…   1192 local m… מועצ…      20381     1        119. 
10 אל קסום       <NA>            69 regiona… מועצ…      18101     1         NA  
# ℹ 246 more rows
# ℹ 16 more variables: district_eng <chr>, district <chr>, class_size <dbl>,
#   bagrut <dbl>, teacher_student_ratio <dbl>, income <dbl>,
#   percent_arab <dbl>, life_expectancy <dbl>, diabetes <dbl>,
#   obesity_grade1 <dbl>, obesity_grade7 <dbl>, cancer_men <chr>,
#   cancer_women <chr>, voting_rate_knesset_2021 <dbl>,
#   voting_rate_knesset_2022 <dbl>, voting_rate_municipalities_2018 <dbl>
…
Example 1: we want to add a new obesity measure that is the delta between 2022 and 2021 elections turnout:

Code

localities_2022 <- localities_2022 %>% 
  mutate(turnout_increase_2022_2021 = (voting_rate_knesset_2022 - voting_rate_knesset_2021))

localities_2022 %>% 
  select(name,
         turnout_increase_2022_2021,
         voting_rate_knesset_2022,
         voting_rate_knesset_2021) %>% 
  arrange(turnout_increase_2022_2021 %>% desc())

# A tibble: 256 × 4
   name     turnout_increase_202…¹ voting_rate_knesset_…² voting_rate_knesset_…³
   <chr>                     <dbl>                  <dbl>                  <dbl>
 1 מזכרת ב…                   57.2                   74.8                   17.6
 2 עמנואל                     57                     67.3                   10.3
 3 מעיליא                     45.6                   65                     19.4
 4 רכסים                      36.4                   81.7                   45.3
 5 אלונה                      32.9                   76.1                   43.2
 6 בני שמע…                   31.1                   74.6                   43.5
 7 שוהם                       26.1                   75.4                   49.3
 8 נחל שורק                   24.7                   81.5                   56.8
 9 סביון                      21.9                   68.7                   46.8
10 עומר                       20.5                   68.9                   48.4
# ℹ 246 more rows
# ℹ abbreviated names: ¹​turnout_increase_2022_2021, ²​voting_rate_knesset_2022,
#   ³​voting_rate_knesset_2021
…
local_municipality <- localities_2022 %>% 
  filter(type_eng=="local municipality")

regional_council <- localities_2022 %>% 
  filter(type_eng=="regional council")

Now, we want to combine them into one table. We use bind_raws to put the tables one below each other.

Code

municipality %>% 
  bind_rows(local_municipality) %>% 
  bind_rows(regional_council)

# A tibble: 256 × 30
   name          name_eng    symbol type_eng type  population  rank distance_tlv
   <chr>         <chr>        <dbl> <chr>    <chr>      <dbl> <dbl>        <dbl>
 1 אום אל-פחם    Umm alFahm    2710 municip… עירי…      58665     2         60.6
 2 אופקים        Ofaqim          31 municip… עירי…      35506     3         87.1
 3 אור יהודה     Or Yehuda     2400 municip… עירי…      38854     5          0  
 4 אור עקיבא     Or Aqiva      1020 municip… עירי…      20874     5         39.4
 5 אילת          Elat          2600 municip… עירי…      53151     6        323  
 6 אלעד          El'ad         1309 municip… עירי…      49487     2         11.6
 7 אריאל         Ari'el        3570 municip… עירי…      20520     6         33.3
 8 אשדוד         Ashdod          70 municip… עירי…     226827     5         28.5
 9 אשקלון        Ashqelon      7100 municip… עירי…     153138     5         43.7
10 באקה אל-גרביה Baqa AlGha…   6000 municip… עירי…      31397     4         40.6
# ℹ 246 more rows
# ℹ 22 more variables: district_eng <chr>, district <chr>, class_size <dbl>,
#   bagrut <dbl>, teacher_student_ratio <dbl>, income <dbl>,
#   percent_arab <dbl>, life_expectancy <dbl>, diabetes <dbl>,
#   obesity_grade1 <dbl>, obesity_grade7 <dbl>, cancer_men <chr>,
#   cancer_women <chr>, voting_rate_knesset_2021 <dbl>,
#   voting_rate_knesset_2022 <dbl>, voting_rate_municipalities_2018 <dbl>, …
…
